{
  "_metadata": {
    "page": 1,
    "per_page": 10,
    "page_count": 4,
    "total_count": 521,
    "Links": [
      { "self": "/users?page=5&per_page=20" },
      { "first": "/users?page=0&per_page=20" },
      { "previous": "/users?page=4&per_page=20" },
      { "next": "/users?page=6&per_page=20" },
      { "last": "/users?page=26&per_page=20" }
    ]
  },
  "data": [
    {
      "id": "1",
      "is_superuser": "true",
      "is_active": "false",
      "is_staff": "true",
      "date_joined": "9/2/2022",
      "date_delete": "11/4/2022",
      "username": "hkanter0",
      "password": "null",
      "email": "hkanter0@cdbaby.com",
      "firstname": "Haydon",
      "lastname": "Kanter",
      "address": "8 Wayridge Center",
      "phone": "939-310-1963"
    },
    {
      "id": "2",
      "is_superuser": "true",
      "is_active": "false",
      "is_staff": "false",
      "date_joined": "3/18/2023",
      "date_delete": "5/17/2022",
      "username": "sgluyas1",
      "password": "null",
      "email": "sgluyas1@google.es",
      "firstname": "Saloma",
      "lastname": "Gluyas",
      "address": "338 Pearson Terrace",
      "phone": "741-120-0900"
    },
    {
      "id": "3",
      "is_superuser": "false",
      "is_active": "true",
      "is_staff": "false",
      "date_joined": "2/23/2023",
      "date_delete": "10/31/2022",
      "username": "cdamrel2",
      "password": "null",
      "email": "cdamrel2@reddit.com",
      "firstname": "Cindra",
      "lastname": "Damrel",
      "address": "402 Bellgrove Avenue",
      "phone": "344-359-3853"
    },
    {
      "id": "4",
      "is_superuser": "true",
      "is_active": "true",
      "is_staff": "false",
      "date_joined": "9/22/2022",
      "date_delete": "9/2/2022",
      "username": "bmarian3",
      "password": "null",
      "email": "bmarian3@lulu.com",
      "firstname": "Brennen",
      "lastname": "Marian",
      "address": "519 Sommers Circle",
      "phone": "391-295-6334"
    },
    {
      "id": "5",
      "is_superuser": "true",
      "is_active": "false",
      "is_staff": "false",
      "date_joined": "3/30/2023",
      "date_delete": "1/28/2023",
      "username": "myaknov4",
      "password": "null",
      "email": "myaknov4@reference.com",
      "firstname": "Madlin",
      "lastname": "Yaknov",
      "address": "5 Pennsylvania Road",
      "phone": "805-999-9453"
    },
    {
      "id": "6",
      "is_superuser": "false",
      "is_active": "true",
      "is_staff": "true",
      "date_joined": "2/2/2023",
      "date_delete": "6/17/2022",
      "username": "umeasures5",
      "password": "null",
      "email": "umeasures5@virginia.edu",
      "firstname": "Urbanus",
      "lastname": "Measures",
      "address": "39301 Surrey Alley",
      "phone": "237-577-0410"
    },
    {
      "id": "7",
      "is_superuser": "false",
      "is_active": "true",
      "is_staff": "false",
      "date_joined": "1/10/2023",
      "date_delete": "5/11/2022",
      "username": "mwhitchurch6",
      "password": "null",
      "email": "mwhitchurch6@g.co",
      "firstname": "Murray",
      "lastname": "Whitchurch",
      "address": "99 East Point",
      "phone": "407-591-4048"
    },
    {
      "id": "8",
      "is_superuser": "false",
      "is_active": "true",
      "is_staff": "true",
      "date_joined": "9/8/2022",
      "date_delete": "6/9/2022",
      "username": "hthewys7",
      "password": "null",
      "email": "hthewys7@sbwire.com",
      "firstname": "Harriott",
      "lastname": "Thewys",
      "address": "8800 Thackeray Place",
      "phone": "655-554-8473"
    },
    {
      "id": "9",
      "is_superuser": "true",
      "is_active": "true",
      "is_staff": "false",
      "date_joined": "4/24/2023",
      "date_delete": "12/31/2022",
      "username": "trevance8",
      "password": "null",
      "email": "trevance8@discovery.com",
      "firstname": "Trace",
      "lastname": "Revance",
      "address": "3133 Troy Way",
      "phone": "934-598-8923"
    },
    {
      "id": "10",
      "is_superuser": "false",
      "is_active": "true",
      "is_staff": "false",
      "date_joined": "8/2/2022",
      "date_delete": "11/1/2022",
      "username": "gjansik9",
      "password": "null",
      "email": "gjansik9@noaa.gov",
      "firstname": "Greg",
      "lastname": "Jansik",
      "address": "0168 Lindbergh Plaza",
      "phone": "192-421-1214"
    }
  ]
}
